<?xml version="1.0" encoding="UTF-8" standalone="no"?>
<svg
   xmlns:dc="http://purl.org/dc/elements/1.1/"
   xmlns:cc="http://creativecommons.org/ns#"
   xmlns:rdf="http://www.w3.org/1999/02/22-rdf-syntax-ns#"
   xmlns:svg="http://www.w3.org/2000/svg"
   xmlns="http://www.w3.org/2000/svg"
   viewBox="0 0 132.28 170.08"
   height="170.08"
   width="132.28"
   xml:space="preserve"
   id="svg2"
   version="1.1"><metadata
     id="metadata8"><rdf:RDF><cc:Work
         rdf:about=""><dc:format>image/svg+xml</dc:format><dc:type
           rdf:resource="http://purl.org/dc/dcmitype/StillImage" /></cc:Work></rdf:RDF></metadata><defs
     id="defs6" /><g
     transform="matrix(1.3333333,0,0,-1.3333333,0,170.08)"
     id="g10"><g
       transform="scale(0.1)"
       id="g12"><path
         id="path14"
         style="fill:#ec008c;fill-opacity:1;fill-rule:nonzero;stroke:none"
         d="M 0,0 H 992.117 V 1275.59 H 0 Z" /><path
         id="path16"
         style="fill:#ffffff;fill-opacity:1;fill-rule:nonzero;stroke:none"
         d="m 224.453,216.191 h -66.422 v -65.363 h 67.59 c 20,0 39.59,7.313 39.59,32.152 0,21.149 -14.508,33.211 -40.758,33.211 m -66.422,100.004 v -55.843 h 67.59 c 17.641,0 31.734,11.277 31.734,28.093 0,16.793 -12.136,27.75 -31.734,27.75 z M 232.68,106.672 H 106.324 V 360 h 119.297 c 54.473,0 81.879,-26.305 81.879,-68.625 0,-21.184 -9.789,-38.324 -26.648,-49.637 23.132,-11.316 37.23,-31.769 37.23,-60.59 0,-45.269 -32.902,-74.476 -85.402,-74.476" /><path
         id="path18"
         style="fill:#ffffff;fill-opacity:1;fill-rule:nonzero;stroke:none"
         d="m 357.051,106.672 h 51.7188 V 360 H 357.051 Z" /><path
         id="path20"
         style="fill:#ffffff;fill-opacity:1;fill-rule:nonzero;stroke:none"
         d="m 509.164,315.102 v -73.731 h 56.25 c 23.91,0 38.371,11.301 38.371,36.852 0,25.554 -14.461,36.879 -38.371,36.879 z M 566.977,197.199 H 509.164 V 106.672 H 457.457 V 360 h 108.34 c 56.808,0 89.723,-32.129 89.723,-81.777 0,-47.082 -34.875,-81.024 -88.543,-81.024" /><path
         id="path22"
         style="fill:#ffffff;fill-opacity:1;fill-rule:nonzero;stroke:none"
         d="m 758.086,306.316 38,-104.007 H 720.09 Z M 725.559,360 630.766,106.672 h 54.859 l 18.414,50.738 h 108.516 l 18.402,-50.738 h 54.848 L 790.996,360 h -65.437" /></g></g></svg>