<?xml version="1.0" encoding="utf-8"?>
<!-- Generator: Adobe Illustrator 16.0.0, SVG Export Plug-In . SVG Version: 6.00 Build 0)  -->
<!DOCTYPE svg PUBLIC "-//W3C//DTD SVG 1.1//EN" "http://www.w3.org/Graphics/SVG/1.1/DTD/svg11.dtd">
<svg version="1.1" id="Layer_1" xmlns="http://www.w3.org/2000/svg" xmlns:xlink="http://www.w3.org/1999/xlink" x="0px" y="0px"
	 width="327.5px" height="184.5px" viewBox="0 0 327.5 184.5" enable-background="new 0 0 327.5 184.5" xml:space="preserve">
<rect x="-4212.5" y="-279.001" fill="#FFFFFF" width="3994.926" height="743.001"/>
<polygon fill="#FFFFFF" points="319.904,163.296 305.305,177.896 163.713,36.303 22.119,177.896 7.52,163.296 163.713,7.104 "/>
<polygon fill="none" stroke="#FFFFFF" stroke-width="12.756" stroke-linecap="round" stroke-linejoin="round" stroke-miterlimit="10" points="
	319.904,163.296 305.305,177.896 163.713,36.303 22.119,177.896 7.52,163.296 163.713,7.104 "/>
<g>
	<defs>
		<rect id="SVGID_1_" x="-4217.5" y="-284.001" width="4757.926" height="753.001"/>
	</defs>
	<clipPath id="SVGID_2_">
		<use xlink:href="#SVGID_1_"  overflow="visible"/>
	</clipPath>
	<path clip-path="url(#SVGID_2_)" fill="#EB008B" d="M-3911.698-34.829h176.393c3.178,0,5.562,2.781,5.562,5.562V3.311
		c0,3.178-2.384,5.561-5.562,5.561h-129.116c-1.986,0-3.576,1.987-3.576,3.973v83.828c0,2.383,1.59,3.972,3.576,3.972h92.168
		c3.179,0,5.96,2.781,5.96,5.562v28.604c0,3.576-2.781,5.96-5.96,5.96h-92.168c-1.986,0-3.576,1.986-3.576,3.972v95.349
		c0,3.178-2.781,5.562-5.96,5.562h-37.741c-2.781,0-5.562-2.384-5.562-5.562V-29.267
		C-3917.26-32.048-3914.479-34.829-3911.698-34.829"/>
	<path clip-path="url(#SVGID_2_)" fill="#EB008B" d="M-3735.702,136.399c0-52.839,42.111-91.772,97.334-91.772
		c55.619,0,97.334,38.933,97.334,91.772v21.849c0,52.84-41.715,91.773-97.334,91.773c-55.223,0-97.334-38.934-97.334-91.773V136.399
		z M-3688.029,157.853c0,30.988,20.262,52.044,49.661,52.044c29.796,0,49.66-21.056,49.66-52.044v-21.057
		c0-30.987-19.864-52.043-49.66-52.043c-29.399,0-49.661,21.056-49.661,52.043V157.853z"/>
	<path clip-path="url(#SVGID_2_)" fill="#EB008B" d="M-3496.537-6.224h37.345c3.178,0,5.561,2.781,5.561,5.958v45.291
		c0,2.383,1.59,3.972,4.371,3.972h42.112c3.178,0,5.561,2.384,5.561,5.562v19.864c0,3.179-2.383,5.959-5.561,5.959h-42.112
		c-2.781,0-4.371,1.589-4.371,3.974v105.676c0,12.713,10.727,18.274,20.659,18.274c8.74,0,15.097-2.78,20.261-5.959
		c2.782-1.589,6.755-0.396,7.946,2.384l13.905,23.44c1.987,3.178,0.794,7.151-2.383,8.342c-8.344,4.37-26.222,12.316-48.866,12.316
		c-39.331,0-60.387-18.276-60.387-52.838V84.356c0-2.385-1.589-3.974-3.973-3.974h-20.658c-3.178,0-5.562-2.78-5.562-5.959V54.559
		c0-3.178,2.384-5.562,5.562-5.562h20.658c2.384,0,3.973-1.589,3.973-3.972V-0.266C-3502.496-3.443-3499.715-6.224-3496.537-6.224"
		/>
	<path clip-path="url(#SVGID_2_)" fill="#EB008B" d="M-3384.505,136.399c0-52.839,42.111-91.772,97.334-91.772
		c55.619,0,97.333,38.933,97.333,91.772v21.849c0,52.84-41.714,91.773-97.333,91.773c-55.223,0-97.334-38.934-97.334-91.773V136.399
		z M-3336.832,157.853c0,30.988,20.262,52.044,49.661,52.044c29.796,0,49.66-21.056,49.66-52.044v-21.057
		c0-30.987-19.864-52.043-49.66-52.043c-29.399,0-49.661,21.056-49.661,52.043V157.853z"/>
	<path clip-path="url(#SVGID_2_)" fill="#EB008B" d="M-3069.065-34.829h37.345c3.575,0,5.561,2.383,5.561,5.562v93.758
		c0,2.384,2.781,3.576,4.768,1.589c12.713-13.905,31.385-20.262,51.646-20.262c43.304,0,68.73,28.208,68.73,77.074V240.09
		c0,3.178-2.383,5.562-5.562,5.562h-37.344c-3.179,0-5.96-2.384-5.96-5.562V125.275c0-27.413-15.096-36.947-34.96-36.947
		c-13.111,0-25.824,5.165-35.756,13.506c-3.575,2.781-5.562,7.151-5.562,11.521V240.09c0,3.178-1.986,5.562-5.561,5.562h-37.345
		c-3.178,0-5.562-2.384-5.562-5.562V-29.267C-3074.627-32.446-3072.243-34.829-3069.065-34.829"/>
	<path clip-path="url(#SVGID_2_)" fill="#EB008B" d="M-2867.644,136.399c0-52.839,42.112-91.772,97.335-91.772
		c55.619,0,97.333,38.933,97.333,91.772v21.849c0,52.84-41.714,91.773-97.333,91.773c-55.223,0-97.335-38.934-97.335-91.773V136.399
		z M-2819.97,157.853c0,30.988,20.262,52.044,49.661,52.044c29.796,0,49.66-21.056,49.66-52.044v-21.057
		c0-30.987-19.864-52.043-49.66-52.043c-29.399,0-49.661,21.056-49.661,52.043V157.853z"/>
	<path clip-path="url(#SVGID_2_)" fill="#EB008B" d="M-2645.563,136.399c0-50.058,42.112-91.772,97.731-91.772
		c19.864,0,38.537,5.164,54.428,15.096c3.178,1.987,3.575,5.165,1.987,7.946l-15.098,25.028c-1.589,2.782-4.767,3.577-7.548,1.987
		c-9.137-5.562-21.056-9.137-33.769-9.137c-29.795,0-49.66,22.645-49.66,51.249v20.659c0,28.604,19.865,51.646,49.66,51.646
		c12.316,0,23.837-3.576,33.372-9.137c3.178-1.591,6.356,0,7.548,2.383l14.302,25.029c1.589,2.78,0.795,6.754-2.384,8.343
		c-15.891,9.534-33.371,14.303-52.838,14.303c-55.619,0-97.731-41.318-97.731-91.773V136.399z"/>
	<path clip-path="url(#SVGID_2_)" fill="#EB008B" d="M-2454.468-34.829h37.345c3.575,0,5.561,2.383,5.561,5.562v93.758
		c0,2.384,2.781,3.576,4.767,1.589c12.713-13.905,31.386-20.262,51.646-20.262c43.304,0,68.731,28.208,68.731,77.074V240.09
		c0,3.178-2.384,5.562-5.563,5.562h-37.343c-3.179,0-5.96-2.384-5.96-5.562V125.275c0-27.413-15.096-36.947-34.96-36.947
		c-13.112,0-25.825,5.165-35.756,13.506c-3.575,2.781-5.562,7.151-5.562,11.521V240.09c0,3.178-1.986,5.562-5.561,5.562h-37.345
		c-3.179,0-5.562-2.384-5.562-5.562V-29.267C-2460.03-32.446-2457.647-34.829-2454.468-34.829"/>
	<path clip-path="url(#SVGID_2_)" fill="#EB008B" d="M-2239.142-34.829h37.345c3.178,0,5.561,2.383,5.561,5.562V240.09
		c0,3.178-2.383,5.562-5.561,5.562h-37.345c-3.179,0-5.562-2.384-5.562-5.562V-29.267
		C-2244.704-32.446-2242.321-34.829-2239.142-34.829"/>
	<path clip-path="url(#SVGID_2_)" fill="#EB008B" d="M-2160.879,137.591c0-56.81,36.946-91.772,80.649-91.772
		c23.438,0,39.33,7.946,54.029,22.249c1.192,1.191,3.576,0.794,3.973-0.796l3.178-13.904c0.794-2.782,3.575-4.371,6.358-4.371
		h30.987c2.78,0,5.561,2.385,5.561,5.562V240.09c0,3.177-2.781,5.562-5.561,5.562h-37.741c-3.179,0-5.563-2.385-5.563-5.562v-11.124
		c0-1.987-2.781-3.179-4.37-1.589c-14.303,13.508-30.591,21.453-52.044,21.453c-46.879,0-79.456-37.345-79.456-91.375V137.591z
		 M-2113.206,156.263c0,31.783,17.878,52.044,46.482,52.044c13.906,0,26.221-5.165,36.551-13.905
		c3.178-2.383,5.164-6.355,5.164-10.726V111.37c0-4.369-1.986-8.343-5.164-11.123c-9.932-8.74-22.645-13.508-36.551-13.508
		c-28.604,0-46.482,20.262-46.482,52.044V156.263z"/>
	<path clip-path="url(#SVGID_2_)" fill="#EB008B" d="M-1941.182,137.591c0-56.81,36.946-91.772,80.649-91.772
		c20.658,0,36.946,6.754,50.851,19.466c1.589,1.59,4.37,0.796,4.37-1.986v-92.566c0-3.178,2.384-5.561,5.563-5.561h37.74
		c2.78,0,5.562,2.383,5.562,5.561V240.09c0,3.177-2.781,5.562-5.562,5.562h-32.18c-2.384,0-4.767-1.191-5.165-3.575l-3.575-15.098
		c-0.396-1.589-2.384-2.383-3.973-0.794c-13.905,14.7-32.974,22.646-54.427,22.646c-46.88,0-79.854-37.345-79.854-91.375V137.591z
		 M-1893.508,156.263c0,31.783,17.878,52.044,46.482,52.044c13.906,0,26.221-5.165,36.551-13.905
		c3.177-2.383,5.164-6.355,5.164-10.726V111.37c0-4.369-1.987-8.343-5.164-11.123c-9.536-8.74-22.645-13.508-36.551-13.508
		c-28.604,0-46.482,20.262-46.482,52.044V156.263z"/>
	<path clip-path="url(#SVGID_2_)" fill="#EB008B" d="M-1721.485,136.796c0-54.825,38.14-92.168,92.568-92.168
		c53.235,0,90.977,36.549,90.977,92.168v18.672c0,3.179-2.384,5.96-5.959,5.96h-125.938c-1.987,0-3.575,1.986-3.575,3.974
		c2.78,27.81,23.042,44.495,52.043,44.495c13.11,0,24.235-3.973,34.167-12.316c1.986-1.986,5.562-1.986,7.548-0.396l26.22,20.262
		c2.781,2.383,2.385,6.355-0.396,8.739c-17.878,15.892-40.92,23.837-67.539,23.837c-57.208,0-100.115-38.934-100.115-92.169V136.796
		z M-1673.016,125.673c-0.397,2.781,1.588,4.37,3.974,4.37h78.661c3.178,0,4.369-1.987,3.972-4.37
		c-3.178-26.22-17.878-40.92-42.112-40.92C-1653.947,84.753-1669.441,98.657-1673.016,125.673"/>
	<path clip-path="url(#SVGID_2_)" fill="#EB008B" d="M-1496.623,48.997h31.781c2.384,0,4.768,1.192,5.165,3.575l3.179,15.495
		c0.397,2.383,3.179,2.781,4.768,0.794c14.699-15.493,33.769-23.042,55.222-23.042c42.906,0,67.935,28.207,67.935,77.073V240.09
		c0,3.178-2.383,5.562-5.959,5.562h-37.345c-2.78,0-5.561-2.384-5.561-5.562V125.275c0-27.412-15.097-36.947-34.961-36.947
		c-13.111,0-26.222,5.165-35.757,13.507c-3.574,3.179-5.562,7.152-5.562,11.521V240.09c0,3.178-2.383,5.562-5.561,5.562h-37.345
		c-3.18,0-5.562-2.384-5.562-5.562V54.559C-1502.186,51.381-1499.803,48.997-1496.623,48.997"/>
</g>
</svg>
