<?xml version="1.0" encoding="utf-8"?>
<!-- Generator: Adobe Illustrator 16.0.0, SVG Export Plug-In . SVG Version: 6.00 Build 0)  -->
<!DOCTYPE svg PUBLIC "-//W3C//DTD SVG 1.1//EN" "http://www.w3.org/Graphics/SVG/1.1/DTD/svg11.dtd">
<svg version="1.1" id="Layer_1" xmlns="http://www.w3.org/2000/svg" xmlns:xlink="http://www.w3.org/1999/xlink" x="0px" y="0px"
	 width="333px" height="335px" viewBox="0 0 333 335" enable-background="new 0 0 333 335" xml:space="preserve">
<g>
	<defs>
		<rect id="SVGID_1_" x="-83" y="-82" width="500" height="500"/>
	</defs>
	<clipPath id="SVGID_2_">
		<use xlink:href="#SVGID_1_"  overflow="visible"/>
	</clipPath>
	<path clip-path="url(#SVGID_2_)" fill="#EB008C" d="M331.038,4.339c-3.021-3.019-7.548-3.019-10.567,0L167,157.811L14.032,4.339
		c-3.019-3.019-7.548-3.019-10.567,0c-3.019,3.019-3.019,7.548,0,10.567l152.968,153.471L2.962,321.346
		c-3.019,3.019-3.019,7.548,0,10.566c1.51,1.511,3.522,2.013,5.535,2.013s4.025-0.502,5.535-2.013L167,178.944l152.968,152.968
		c1.51,1.511,3.522,2.013,5.535,2.013s4.025-0.502,5.535-2.013c3.019-3.019,3.019-7.548,0-10.566L177.566,168.377L330.535,15.409
		C333.554,12.391,333.554,7.358,331.038,4.339"/>
</g>
</svg>
