<?xml version="1.0" encoding="utf-8"?>
<!-- Generator: Adobe Illustrator 16.0.0, SVG Export Plug-In . SVG Version: 6.00 Build 0)  -->
<!DOCTYPE svg PUBLIC "-//W3C//DTD SVG 1.1//EN" "http://www.w3.org/Graphics/SVG/1.1/DTD/svg11.dtd">
<svg version="1.1" id="Layer_1" xmlns="http://www.w3.org/2000/svg" xmlns:xlink="http://www.w3.org/1999/xlink" x="0px" y="0px"
	 width="364.481px" height="364.481px" viewBox="0 0 364.481 364.481" enable-background="new 0 0 364.481 364.481"
	 xml:space="preserve">
<g>
	<defs>
		<rect id="SVGID_1_" x="-2299.547" y="-211.938" width="2859.096" height="752.84"/>
	</defs>
	<clipPath id="SVGID_2_">
		<use xlink:href="#SVGID_1_"  overflow="visible"/>
	</clipPath>
	
		<line clip-path="url(#SVGID_2_)" fill="none" stroke="#FFFFFF" stroke-width="19.843" stroke-miterlimit="10" x1="-193.19" y1="-211.939" x2="-193.19" y2="540.901"/>
	<path clip-path="url(#SVGID_2_)" fill="#FFFFFF" d="M-2084.021,6.569h3.084c1.762,0,3.523,0.441,4.845,1.763l200.852,221.994
		c1.761,1.763,4.845,1.323,4.845-1.32V11.415c0-2.643,2.202-4.845,4.845-4.845h28.19c2.643,0,4.845,2.202,4.845,4.845v300.838
		c0,3.084-2.202,5.286-5.286,5.286h-3.084c-2.202,0-3.963-0.882-5.283-2.643L-2045.7,92.461c-1.763-1.761-5.286-0.882-5.286,1.761
		v218.472c0,2.643-1.761,4.845-4.845,4.845h-28.19c-2.643,0-4.845-2.202-4.845-4.845V11.415
		C-2088.866,8.771-2086.664,6.569-2084.021,6.569"/>
	<path clip-path="url(#SVGID_2_)" fill="#FFFFFF" d="M-1780.124,196.851c0-59.461,44.046-101.746,104.831-101.746
		c60.342,0,104.391,42.285,104.391,101.746v23.345c0,59.022-44.049,101.748-104.391,101.748
		c-60.785,0-104.831-42.726-104.831-101.748V196.851z M-1743.125,220.195c0,42.285,27.308,70.474,67.832,70.474
		c40.082,0,67.39-28.188,67.39-70.474v-23.345c0-42.284-27.308-70.474-67.39-70.474c-40.524,0-67.832,28.19-67.832,70.474V220.195z"
		/>
	<path clip-path="url(#SVGID_2_)" fill="#FFFFFF" d="M-1536.564,196.851c0-57.7,44.046-101.746,104.389-101.746
		c22.465,0,43.608,5.725,60.784,17.618c2.643,1.761,2.643,4.404,1.764,6.606l-11.452,18.94c-1.323,2.202-4.407,3.084-6.609,1.323
		c-12.331-7.929-27.749-12.775-44.487-12.775c-40.082,0-67.39,29.513-67.39,70.476v22.465c0,40.962,27.308,70.474,67.39,70.474
		c16.738,0,32.156-4.845,43.608-12.773c3.081-1.32,5.724-0.441,7.047,2.201l11.011,18.5c1.32,2.202,0.441,5.727-1.762,7.048
		c-17.178,11.013-37.88,16.737-59.904,16.737c-60.343,0-104.389-44.046-104.389-101.748V196.851z"/>
	<path clip-path="url(#SVGID_2_)" fill="#FFFFFF" d="M-1323.837,6.569h27.749c2.643,0,4.845,2.202,4.845,4.845v111.439
		c0,2.202,2.643,3.084,3.966,1.32c15.415-18.499,40.082-27.749,66.509-27.749c48.452,0,75.76,29.952,75.76,85.452v130.818
		c0,2.643-2.202,4.845-4.845,4.845h-27.749c-2.643,0-4.845-2.202-4.845-4.845V183.196c0-38.319-18.94-54.177-48.891-54.177
		c-20.261,0-40.965,8.37-54.619,22.903c-3.523,3.084-5.286,7.05-5.286,11.893v148.879c0,2.643-2.202,4.845-4.845,4.845h-27.749
		c-3.082,0-5.284-2.202-5.284-4.845V11.415C-1329.121,8.771-1326.919,6.569-1323.837,6.569"/>
	<path clip-path="url(#SVGID_2_)" fill="#FFFFFF" d="M-1088.647,99.509h24.227c2.202,0,4.404,1.32,4.845,3.522l2.202,19.382
		c0.441,1.761,2.643,2.643,3.966,0.882c15.415-18.061,37.439-26.87,62.986-26.87c31.712,0,54.616,13.654,66.07,39.642
		c0.88,2.202,3.963,2.643,5.284,0c15.418-25.988,41.844-39.642,72.237-39.642c48.892,0,74.879,30.833,74.879,85.451v130.818
		c0,2.643-2.201,4.845-4.845,4.845h-27.749c-3.084,0-4.846-2.202-4.846-4.845V183.197c0-37.881-17.178-54.178-47.57-54.178
		c-24.667,0-44.928,11.452-54.619,32.594c-2.643,2.644-4.404,7.048-4.404,11.456v139.626c0,2.643-1.762,4.845-4.845,4.845h-27.749
		c-2.643,0-4.845-2.202-4.845-4.845V183.197c0-38.76-17.621-54.178-47.131-54.178c-19.381,0-37.439,7.489-49.773,20.702
		c-3.522,3.084-5.286,7.488-5.286,11.892v151.082c0,2.643-2.202,4.845-5.284,4.845h-27.751c-2.641,0-4.843-2.202-4.843-4.845
		v-208.34C-1093.491,101.711-1091.289,99.509-1088.647,99.509"/>
	<path clip-path="url(#SVGID_2_)" fill="#FFFFFF" d="M-730.138,197.732c0-61.225,40.083-101.308,91.177-101.308
		c28.189,0,48.45,9.691,65.188,27.308c1.322,1.323,3.525,0.882,3.964-0.879l1.764-19.381c0.88-2.643,3.082-3.964,5.283-3.964h23.786
		c2.643,0,4.845,2.202,4.845,4.845v208.34c0,2.644-2.202,4.846-4.845,4.846h-27.749c-2.643,0-4.846-2.202-4.846-4.846v-18.499
		c0-1.761-2.643-3.084-3.964-1.322c-16.737,17.619-37.88,27.751-63.867,27.751c-53.737,0-90.736-41.405-90.736-100.866V197.732z
		 M-693.139,218.434c0,42.726,24.665,70.916,62.986,70.916c20.702,0,40.083-7.489,53.296-22.024
		c3.084-3.081,5.286-7.486,5.286-11.452v-94.259c0-4.846-2.202-8.368-5.286-11.452c-13.213-14.536-32.594-22.022-53.296-22.022
		c-38.321,0-62.986,28.19-62.986,70.475V218.434z"/>
	<path clip-path="url(#SVGID_2_)" fill="#FFFFFF" d="M-475.123,6.569h27.749c2.643,0,4.846,2.202,4.846,4.845v301.28
		c0,2.643-2.203,4.845-4.846,4.845h-27.749c-3.082,0-5.284-2.202-5.284-4.845V11.415C-480.407,8.771-478.205,6.569-475.123,6.569"/>
	
		<path clip-path="url(#SVGID_2_)" fill="none" stroke="#FFFFFF" stroke-width="42.52" stroke-linecap="round" stroke-miterlimit="10" d="
		M25.492,188.891c2.815,84.475,72.647,152.055,157.687,152.055c87.292,0,157.687-70.396,157.687-157.688
		c0-87.291-70.395-157.687-157.687-157.687c-54.627,0-107.001,30.974-135.723,73.775"/>
	
		<polyline clip-path="url(#SVGID_2_)" fill="none" stroke="#FFFFFF" stroke-width="42.52" stroke-linecap="round" stroke-linejoin="round" stroke-miterlimit="10" points="
		42.388,25.571 42.388,110.046 126.299,110.046 	"/>
</g>
</svg>
