<?xml version="1.0" encoding="utf-8"?>
<!-- Generator: Adobe Illustrator 16.0.0, SVG Export Plug-In . SVG Version: 6.00 Build 0)  -->
<!DOCTYPE svg PUBLIC "-//W3C//DTD SVG 1.1//EN" "http://www.w3.org/Graphics/SVG/1.1/DTD/svg11.dtd">
<svg version="1.1" id="Layer_1" xmlns="http://www.w3.org/2000/svg" xmlns:xlink="http://www.w3.org/1999/xlink" x="0px" y="0px"
	 width="390.219px" height="276.148px" viewBox="0 0 390.219 276.148" enable-background="new 0 0 390.219 276.148"
	 xml:space="preserve">
<rect x="-4181.312" y="-233.426" fill="#FFFFFF" width="3994.921" height="743"/>
<path fill="#FFFFFF" d="M-4186.312,514.574h4004.921v-753h-4004.921V514.574z"/>
<g>
	<defs>
		<rect id="SVGID_1_" x="-4186.312" y="-238.426" width="4757.921" height="753"/>
	</defs>
	<clipPath id="SVGID_2_">
		<use xlink:href="#SVGID_1_"  overflow="visible"/>
	</clipPath>
	<path clip-path="url(#SVGID_2_)" fill="#FFFFFF" d="M194.905,93.554c33.991,0,61.549,27.556,61.549,61.548
		c0,33.993-27.558,61.549-61.549,61.549c-33.992,0-61.55-27.556-61.55-61.549C133.355,121.11,160.913,93.554,194.905,93.554"/>
	<path clip-path="url(#SVGID_2_)" fill="#FFFFFF" d="M348.366,34.878h-87.399L244.964,6.975C242.502,2.872,237.989,0,233.065,0
		h-76.32c-4.924,0-9.438,2.462-11.9,6.975l-16.003,27.903H97.657v-4.924c0-3.694-3.282-6.976-6.976-6.976H57.856
		c-3.692,0-6.977,3.282-6.977,6.976v4.924h-9.436C18.465,34.878,0,53.342,0,76.32v158.385c0,22.979,18.465,41.443,41.444,41.443
		h307.332c22.978,0,41.442-18.465,41.442-41.443V76.32C389.809,53.342,371.344,34.878,348.366,34.878 M194.905,238.808
		c-45.957,0-83.297-37.339-83.297-83.295c0-45.958,37.34-83.296,83.297-83.296c45.955,0,83.295,37.339,83.295,83.296
		C278.2,201.469,240.86,238.808,194.905,238.808 M343.853,95.195c-7.797,0-14.361-6.565-14.361-14.361
		c0-7.797,6.564-14.362,14.361-14.362s14.36,6.565,14.36,14.362C358.213,88.63,351.649,95.195,343.853,95.195"/>
	<path display="none" clip-path="url(#SVGID_2_)" fill="#FFFFFF" d="M-3885.4,2.877h182.504c3.288,0,5.754,2.877,5.754,5.754v33.706
		c0,3.289-2.466,5.754-5.754,5.754h-133.589c-2.056,0-3.701,2.056-3.701,4.111v86.73c0,2.467,1.645,4.11,3.701,4.11h95.361
		c3.289,0,6.166,2.877,6.166,5.756v29.595c0,3.699-2.877,6.165-6.166,6.165h-95.361c-2.056,0-3.701,2.055-3.701,4.111v98.65
		c0,3.287-2.877,5.754-6.165,5.754h-39.049c-2.877,0-5.754-2.467-5.754-5.754V8.631C-3891.154,5.754-3888.277,2.877-3885.4,2.877"/>
	<path display="none" clip-path="url(#SVGID_2_)" fill="#FFFFFF" d="M-3703.307,180.038c0-54.669,43.571-94.951,100.706-94.951
		c57.546,0,100.705,40.282,100.705,94.951v22.606c0,54.669-43.159,94.952-100.705,94.952c-57.135,0-100.706-40.283-100.706-94.952
		V180.038z M-3653.982,202.234c0,32.062,20.964,53.847,51.381,53.847c30.828,0,51.381-21.785,51.381-53.847v-21.786
		c0-32.062-20.553-53.846-51.381-53.846c-30.417,0-51.381,21.785-51.381,53.846V202.234z"/>
	<path display="none" clip-path="url(#SVGID_2_)" fill="#FFFFFF" d="M-3455.856,32.472h38.639c3.288,0,5.754,2.877,5.754,6.165
		v46.859c0,2.467,1.645,4.111,4.522,4.111h43.57c3.289,0,5.755,2.467,5.755,5.754v20.553c0,3.288-2.466,6.165-5.755,6.165h-43.57
		c-2.877,0-4.522,1.644-4.522,4.111v109.338c0,13.153,11.098,18.908,21.374,18.908c9.043,0,15.62-2.878,20.963-6.166
		c2.878-1.644,6.989-0.41,8.221,2.467l14.387,24.251c2.055,3.289,0.822,7.4-2.465,8.631c-8.633,4.522-27.13,12.744-50.559,12.744
		c-40.694,0-62.48-18.908-62.48-54.669V126.19c0-2.467-1.644-4.111-4.11-4.111h-21.373c-3.289,0-5.756-2.877-5.756-6.165V95.361
		c0-3.287,2.467-5.754,5.756-5.754h21.373c2.466,0,4.11-1.644,4.11-4.111V38.637C-3462.022,35.349-3459.145,32.472-3455.856,32.472"
		/>
	<path display="none" clip-path="url(#SVGID_2_)" fill="#FFFFFF" d="M-3339.944,180.038c0-54.669,43.571-94.951,100.706-94.951
		c57.547,0,100.706,40.282,100.706,94.951v22.606c0,54.669-43.159,94.952-100.706,94.952c-57.135,0-100.706-40.283-100.706-94.952
		V180.038z M-3290.619,202.234c0,32.062,20.964,53.847,51.381,53.847c30.828,0,51.381-21.785,51.381-53.847v-21.786
		c0-32.062-20.553-53.846-51.381-53.846c-30.417,0-51.381,21.785-51.381,53.846V202.234z"/>
	<path display="none" clip-path="url(#SVGID_2_)" fill="#FFFFFF" d="M-3027.961,181.27c0-58.779,38.227-94.952,83.442-94.952
		c24.252,0,40.694,8.222,55.902,23.02c1.233,1.232,3.7,0.822,4.11-0.823l3.288-14.386c0.823-2.878,3.701-4.522,6.578-4.522h32.061
		c2.877,0,5.755,2.467,5.755,5.754V287.32c0,3.288-2.878,5.754-5.755,5.754h-39.049c-3.288,0-5.755-2.466-5.755-5.754v-11.51
		c0-2.056-2.877-3.288-4.521-1.644c-14.798,13.976-31.651,22.196-53.847,22.196c-48.503,0-82.209-38.638-82.209-94.541V181.27z
		 M-2978.636,200.588c0,32.885,18.497,53.848,48.093,53.848c14.386,0,27.128-5.344,37.816-14.387
		c3.288-2.466,5.343-6.576,5.343-11.099v-74.81c0-4.521-2.055-8.632-5.343-11.509c-10.276-9.043-23.43-13.977-37.816-13.977
		c-29.596,0-48.093,20.964-48.093,53.847V200.588z"/>
	<path display="none" clip-path="url(#SVGID_2_)" fill="#FFFFFF" d="M-2788.322,89.607h38.639c3.698,0,6.165,2.467,6.165,5.754
		v119.204c0,25.896,11.509,38.227,35.35,38.227c13.564,0,25.485-5.754,34.938-13.975c4.111-3.289,5.756-6.988,5.756-11.51V95.361
		c0-3.287,2.877-5.754,5.754-5.754h38.638c3.699,0,6.166,2.467,6.166,5.754V287.32c0,3.287-2.467,5.754-6.166,5.754h-32.472
		c-2.467,0-4.522-0.82-5.344-3.699l-3.699-15.619c-0.822-1.645-2.467-2.466-4.111-0.822c-13.975,15.209-34.116,23.43-55.902,23.43
		c-43.982,0-69.466-29.184-69.466-80.565V95.361C-2794.076,92.074-2791.611,89.607-2788.322,89.607"/>
	<path display="none" clip-path="url(#SVGID_2_)" fill="#FFFFFF" d="M-2496.067,0c23.43,0,41.926,8.221,50.146,12.742
		c3.29,1.644,4.523,5.343,2.467,8.632l-13.153,23.84c-1.233,2.467-5.344,3.7-8.221,2.056c-4.932-2.877-12.742-6.166-21.374-6.166
		c-11.921,0-21.785,6.166-21.785,19.73v24.252c0,2.466,1.645,4.521,4.11,4.521h43.982c2.877,0,5.754,2.467,5.754,5.754v20.553
		c0,3.289-2.877,6.166-5.754,6.166h-43.982c-2.466,0-4.11,1.644-4.11,4.11v161.13c0,3.287-2.467,5.754-6.166,5.754h-38.639
		c-2.877,0-5.754-2.467-5.754-5.754V126.19c0-2.466-1.645-4.11-4.521-4.11h-20.964c-3.288,0-6.165-2.877-6.165-6.166V95.361
		c0-3.287,2.877-5.754,6.165-5.754h20.964c2.876,0,4.521-2.055,4.521-4.521V55.491C-2558.546,19.729-2537.171,0-2496.067,0"/>
	<path display="none" clip-path="url(#SVGID_2_)" fill="#FFFFFF" d="M-2426.188,89.607h32.883c2.467,0,4.933,1.233,5.344,3.699
		l3.288,16.032c0.412,2.465,3.289,2.877,4.932,0.822c15.209-16.031,34.94-23.842,57.136-23.842
		c44.394,0,70.288,29.185,70.288,79.744V287.32c0,3.287-2.466,5.754-6.166,5.754h-38.638c-2.877,0-5.754-2.467-5.754-5.754V168.528
		c0-28.362-15.62-38.227-36.171-38.227c-13.566,0-27.129,5.344-36.996,13.975c-3.699,3.289-5.753,7.399-5.753,11.92V287.32
		c0,3.287-2.466,5.754-5.755,5.754h-38.638c-3.289,0-5.755-2.467-5.755-5.754V95.361
		C-2431.943,92.074-2429.477,89.607-2426.188,89.607"/>
	<path display="none" clip-path="url(#SVGID_2_)" fill="#FFFFFF" d="M-2217.788,180.448c0-56.724,39.459-95.362,95.772-95.362
		c55.08,0,94.13,37.815,94.13,95.362v19.319c0,3.289-2.467,6.166-6.166,6.166h-130.302c-2.056,0-3.699,2.055-3.699,4.109
		c2.877,28.774,23.84,46.038,53.847,46.038c13.563,0,25.074-4.11,35.35-12.742c2.055-2.057,5.754-2.057,7.81-0.411l27.128,20.963
		c2.878,2.466,2.467,6.576-0.41,9.043c-18.497,16.441-42.337,24.663-69.878,24.663c-59.191,0-103.583-40.283-103.583-95.363V180.448
		z M-2167.641,168.939c-0.411,2.877,1.645,4.521,4.11,4.521h81.387c3.289,0,4.522-2.056,4.111-4.521
		c-3.289-27.128-18.498-42.337-43.571-42.337C-2147.912,126.602-2163.942,140.987-2167.641,168.939"/>
	<path display="none" clip-path="url(#SVGID_2_)" fill="#FFFFFF" d="M-1985.137,2.877h38.638c3.699,0,5.755,2.466,5.755,5.754
		v97.007c0,2.467,2.877,3.7,4.931,1.644c13.155-14.386,32.473-20.964,53.438-20.964c44.803,0,71.109,29.185,71.109,79.744V287.32
		c0,3.287-2.466,5.754-5.754,5.754h-38.638c-3.289,0-6.166-2.467-6.166-5.754V168.528c0-28.362-15.62-38.227-36.171-38.227
		c-13.566,0-26.719,5.344-36.996,13.975c-3.699,2.877-5.753,7.399-5.753,11.92V287.32c0,3.287-2.056,5.754-5.755,5.754h-38.638
		c-3.289,0-5.755-2.467-5.755-5.754V8.631C-1990.893,5.343-1988.426,2.877-1985.137,2.877"/>
	<path display="none" clip-path="url(#SVGID_2_)" fill="#FFFFFF" d="M-1762.351,89.607h32.883c2.055,0,4.933,1.233,5.344,3.699
		l3.289,14.799c0.41,1.643,2.877,2.877,4.931,0.821c13.566-14.797,32.474-22.608,53.849-22.608c27.129,0,48.914,11.51,60.013,33.295
		c1.231,2.056,3.698,2.467,4.932,0c13.976-21.785,36.993-33.295,63.3-33.295c44.395,0,70.289,30.007,70.289,80.154V287.32
		c0,3.287-2.466,5.754-5.755,5.754h-39.049c-3.289,0-5.754-2.467-5.754-5.754V168.528c0-28.362-14.798-38.227-35.761-38.227
		c-15.62,0-28.774,6.576-36.583,18.086c-2.878,2.877-5.345,7.398-5.345,11.92V287.32c0,3.287-2.466,5.754-5.755,5.754h-38.638
		c-2.877,0-5.754-2.467-5.754-5.754V168.528c0-28.772-15.621-38.227-35.762-38.227c-13.153,0-25.072,4.521-34.528,12.742
		c-3.699,2.467-5.753,6.987-5.753,11.51V287.32c0,3.287-2.467,5.754-5.755,5.754h-38.638c-3.289,0-5.756-2.467-5.756-5.754V95.361
		C-1768.106,92.074-1765.64,89.607-1762.351,89.607"/>
	<path display="none" clip-path="url(#SVGID_2_)" fill="#FFFFFF" d="M-1428.991,180.448c0-56.724,39.46-95.362,95.773-95.362
		c55.079,0,94.129,37.815,94.129,95.362v19.319c0,3.289-2.467,6.166-6.166,6.166h-130.302c-2.055,0-3.698,2.055-3.698,4.109
		c2.877,28.774,23.841,46.038,53.848,46.038c13.562,0,25.072-4.11,35.349-12.742c2.056-2.057,5.754-2.057,7.811-0.411l27.129,20.963
		c2.878,2.466,2.466,6.576-0.411,9.043c-18.498,16.441-42.337,24.663-69.877,24.663c-59.192,0-103.584-40.283-103.584-95.363
		V180.448z M-1378.843,168.939c-0.412,2.877,1.644,4.521,4.109,4.521h81.386c3.289,0,4.523-2.056,4.11-4.521
		c-3.288-27.128-18.497-42.337-43.57-42.337C-1359.114,126.602-1375.146,140.987-1378.843,168.939"/>
	<path display="none" clip-path="url(#SVGID_2_)" fill="#FFFFFF" d="M-1196.341,89.607h32.883c2.468,0,4.934,1.233,5.345,3.699
		l3.289,16.032c0.411,2.465,3.288,2.877,4.932,0.822c15.208-16.031,34.939-23.842,57.135-23.842
		c44.395,0,70.289,29.185,70.289,79.744V287.32c0,3.287-2.466,5.754-6.166,5.754h-38.639c-2.877,0-5.754-2.467-5.754-5.754V168.528
		c0-28.362-15.619-38.227-36.171-38.227c-13.566,0-27.129,5.344-36.996,13.975c-3.698,3.289-5.753,7.399-5.753,11.92V287.32
		c0,3.287-2.466,5.754-5.754,5.754h-38.64c-3.289,0-5.755-2.467-5.755-5.754V95.361
		C-1202.096,92.074-1199.63,89.607-1196.341,89.607"/>
</g>
</svg>
