<?xml version="1.0" encoding="utf-8"?>
<!-- Generator: Adobe Illustrator 16.0.0, SVG Export Plug-In . SVG Version: 6.00 Build 0)  -->
<!DOCTYPE svg PUBLIC "-//W3C//DTD SVG 1.1//EN" "http://www.w3.org/Graphics/SVG/1.1/DTD/svg11.dtd">
<svg version="1.1" id="Layer_1" xmlns="http://www.w3.org/2000/svg" xmlns:xlink="http://www.w3.org/1999/xlink" x="0px" y="0px"
	 width="320.671px" height="325.48px" viewBox="0 0 320.671 325.48" enable-background="new 0 0 320.671 325.48"
	 xml:space="preserve">
<g>
	<defs>
		<rect id="SVGID_1_" x="-3354.329" y="-214.046" width="3897.077" height="753.55"/>
	</defs>
	<clipPath id="SVGID_2_">
		<use xlink:href="#SVGID_1_"  overflow="visible"/>
	</clipPath>
	
		<line clip-path="url(#SVGID_2_)" fill="none" stroke="#EB008B" stroke-width="19.843" stroke-miterlimit="10" x1="-222.252" y1="-213.496" x2="-222.252" y2="538.504"/>
	<path clip-path="url(#SVGID_2_)" fill="#EB008B" d="M-3130.287,4.962h27.763c2.644,0,4.847,2.203,4.847,4.848v131.765
		c0,2.204,1.763,3.968,4.408,3.968h156.003c2.204,0,3.966-1.764,3.966-3.968V9.81c0-2.645,2.203-4.848,4.848-4.848h28.204
		c2.644,0,4.848,2.203,4.848,4.848v301.431c0,2.644-2.204,4.848-4.848,4.848h-28.204c-2.645,0-4.848-2.204-4.848-4.848V180.799
		c0-2.206-1.762-3.968-3.966-3.968h-156.003c-2.645,0-4.408,1.762-4.408,3.968v130.442c0,2.644-2.203,4.848-4.847,4.848h-28.204
		c-2.645,0-4.848-2.204-4.848-4.848V9.81C-3135.575,7.165-3133.373,4.962-3130.287,4.962"/>
	<path clip-path="url(#SVGID_2_)" fill="#EB008B" d="M-2842.982,195.339c0-61.255,40.103-101.797,99.153-101.797
		c58.173,0,97.393,39.661,97.393,101.797v15.867c0,3.083-2.203,5.286-5.288,5.286h-150.273c-2.203,0-3.967,1.765-3.967,3.526
		c0.439,43.187,28.204,69.188,70.071,69.188c16.744,0,32.61-5.287,44.948-14.982c1.321-1.323,4.846-1.763,6.609,0.441l18.071,15.423
		c2.203,2.203,2.203,5.729,0,7.492c-18.509,14.984-43.189,22.915-69.628,22.915c-62.579,0-107.089-41.865-107.089-101.8V195.339z
		 M-2805.525,186.967c0,2.204,1.764,3.966,3.967,3.966h113.698c2.204,0,3.964-1.762,3.964-3.966
		c-2.643-39.22-24.236-62.138-59.489-62.138C-2779.963,124.829-2802.879,147.747-2805.525,186.967"/>
	<path clip-path="url(#SVGID_2_)" fill="#EB008B" d="M-2597.098,97.948h23.798c2.641,0,4.406,1.321,4.846,3.524l1.763,17.629
		c0.44,1.762,3.086,2.645,4.407,0.88c13.659-16.744,33.493-25.118,55.526-25.118c20.712,0,34.814,7.933,40.542,11.898
		c2.203,1.763,3.085,4.848,1.325,7.051l-12.342,19.391c-1.76,2.204-4.845,2.204-7.492,0.881c-4.846-3.084-14.102-7.49-26.439-7.49
		c-18.509,0-36.135,7.93-48.478,22.033c-3.085,3.085-4.845,6.609-4.845,11.457v151.157c0,2.644-2.204,4.848-4.85,4.848h-27.761
		c-3.085,0-5.288-2.204-5.288-4.848V102.796C-2602.386,100.151-2600.183,97.948-2597.098,97.948"/>
	<path clip-path="url(#SVGID_2_)" fill="#EB008B" d="M-2432.297,97.948h27.765c3.086,0,5.289,2.203,5.289,5.289v129.121
		c0,37.018,14.979,54.644,47.151,54.644c20.712,0,39.221-9.695,52.441-23.355c3.085-3.084,5.289-7.053,5.289-11.458V102.796
		c0-2.645,2.203-4.848,4.849-4.848h27.761c2.646,0,4.85,2.203,4.85,4.848v208.445c0,2.644-2.204,4.848-4.85,4.848h-24.236
		c-2.204,0-3.968-1.321-4.846-3.524l-2.203-22.035c-0.444-1.763-2.647-2.204-3.529-0.883c-15.862,18.95-39.66,29.967-66.103,29.967
		c-48.473,0-74.474-30.407-74.474-86.375V103.237C-2437.143,100.151-2434.94,97.948-2432.297,97.948"/>
	<path clip-path="url(#SVGID_2_)" fill="#EB008B" d="M-2197.869,97.948h23.798c2.641,0,4.406,1.321,4.845,3.524l2.204,22.036
		c0.438,1.762,2.646,2.204,3.967,0.882c17.188-19.39,41.424-29.527,68.746-29.527c48.477,0,75.36,29.966,75.36,85.494v130.884
		c0,2.644-2.204,4.848-4.851,4.848h-27.76c-2.647,0-4.85-2.204-4.85-4.848V181.678c0-38.337-18.947-54.205-48.916-54.205
		c-20.712,0-40.984,8.374-54.645,22.915c-3.528,3.086-5.289,7.054-5.289,11.899v148.954c0,2.644-2.203,4.848-4.849,4.848h-27.761
		c-3.085,0-5.289-2.204-5.289-4.848V102.796C-2203.158,100.151-2200.955,97.948-2197.869,97.948"/>
	<path clip-path="url(#SVGID_2_)" fill="#EB008B" d="M-1953.307,37.573h27.761c2.646,0,4.849,2.205,4.849,5.288V93.98
		c0,2.206,1.761,3.968,4.408,3.968h47.594c3.085,0,5.288,2.203,5.288,5.289v15.423c0,2.644-2.203,4.848-5.288,4.848h-47.594
		c-2.647,0-4.408,2.204-4.408,3.965v133.529c0,18.949,13.66,26.883,28.204,26.883c12.338,0,22.034-5.289,27.761-8.813
		c2.647-1.765,6.171-0.882,7.054,1.763l10.577,17.628c1.321,2.203,0.882,5.728-1.765,7.048c-7.93,4.41-26,13.664-49.797,13.664
		c-38.338,0-59.494-18.949-59.494-53.764V127.473c0-1.761-1.76-3.965-4.407-3.965h-25.118c-3.086,0-4.846-2.204-4.846-4.848v-15.864
		c0-2.645,1.76-4.848,4.846-4.848h25.118c2.647,0,4.407-1.762,4.407-3.968V42.861C-1958.157,39.778-1955.953,37.573-1953.307,37.573
		"/>
	<path clip-path="url(#SVGID_2_)" fill="#EB008B" d="M-1839.178,195.339c0-61.255,40.102-101.797,99.152-101.797
		c58.173,0,97.394,39.661,97.394,101.797v15.867c0,3.083-2.204,5.286-5.289,5.286h-150.273c-2.203,0-3.967,1.765-3.967,3.526
		c0.439,43.187,28.204,69.188,70.071,69.188c16.744,0,32.61-5.287,44.948-14.982c1.321-1.323,4.846-1.763,6.61,0.441l18.07,15.423
		c2.203,2.203,2.203,5.729,0,7.492c-18.509,14.984-43.189,22.915-69.628,22.915c-62.579,0-107.088-41.865-107.088-101.8V195.339z
		 M-1801.722,186.967c0,2.204,1.764,3.966,3.968,3.966h113.698c2.203,0,3.963-1.762,3.963-3.966
		c-2.643-39.22-24.236-62.138-59.489-62.138C-1776.16,124.829-1799.076,147.747-1801.722,186.967"/>
	<path clip-path="url(#SVGID_2_)" fill="#EB008B" d="M-1593.295,97.948h23.798c2.642,0,4.406,1.321,4.846,3.524l1.763,17.629
		c0.44,1.762,3.086,2.645,4.407,0.88c13.659-16.744,33.493-25.118,55.526-25.118c20.712,0,34.814,7.933,40.542,11.898
		c2.203,1.763,3.085,4.848,1.325,7.051l-12.342,19.391c-1.76,2.204-4.845,2.204-7.492,0.881c-4.846-3.084-14.102-7.49-26.439-7.49
		c-18.509,0-36.135,7.93-48.478,22.033c-3.085,3.085-4.845,6.609-4.845,11.457v151.157c0,2.644-2.204,4.848-4.85,4.848h-27.761
		c-3.085,0-5.288-2.204-5.288-4.848V102.796C-1598.583,100.151-1596.38,97.948-1593.295,97.948"/>
	<path clip-path="url(#SVGID_2_)" fill="#EB008B" d="M-1425.848,4.962h27.761c2.646,0,4.849,2.203,4.849,4.848v301.431
		c0,2.644-2.202,4.848-4.849,4.848h-27.761c-3.086,0-5.289-2.204-5.289-4.848V9.81C-1431.137,7.165-1428.934,4.962-1425.848,4.962"
		/>
	<path clip-path="url(#SVGID_2_)" fill="#EB008B" d="M-1349.177,196.222c0-61.256,40.104-101.358,91.223-101.358
		c28.205,0,48.478,9.695,65.222,27.321c1.321,1.323,3.524,0.883,3.968-0.88l1.759-19.391c0.884-2.644,3.086-3.965,5.289-3.965
		h23.798c2.647,0,4.851,2.203,4.851,4.847v208.446c0,2.644-2.203,4.848-4.851,4.848h-27.761c-2.646,0-4.85-2.204-4.85-4.848v-18.509
		c0-1.763-2.643-3.086-3.968-1.323c-16.744,17.628-37.895,27.765-63.896,27.765c-53.766,0-90.784-41.426-90.784-100.917V196.222z
		 M-1312.158,216.934c0,42.747,24.68,70.951,63.018,70.951c20.711,0,40.103-7.492,53.323-22.035
		c3.085-3.084,5.288-7.49,5.288-11.458v-94.308c0-4.847-2.203-8.372-5.288-11.457c-13.221-14.543-32.612-22.033-53.323-22.033
		c-38.338,0-63.018,28.204-63.018,70.51V216.934z"/>
	<path clip-path="url(#SVGID_2_)" fill="#EB008B" d="M-1109.017,196.222c0-61.256,40.104-101.358,91.223-101.358
		c26.44,0,47.151,8.812,63.019,25.559c1.321,1.762,4.406,0.882,4.406-1.321V9.81c0-2.645,2.204-4.848,4.85-4.848h27.761
		c2.647,0,4.851,2.203,4.851,4.848v301.432c0,2.644-2.203,4.848-4.851,4.848h-24.235c-2.204,0-3.968-1.321-4.852-3.524
		l-2.202-20.715c-0.438-2.203-2.642-2.644-3.964-0.88c-15.427,18.509-39.22,28.204-65.221,28.204
		c-53.327,0-90.784-41.426-90.784-100.917V196.222z M-1071.998,216.934c0,42.747,24.68,70.951,63.018,70.951
		c20.711,0,40.103-7.492,53.323-22.035c3.085-3.084,5.288-7.49,5.288-11.458v-94.308c0-4.847-2.203-8.372-5.288-11.457
		c-12.781-14.982-32.612-22.033-53.323-22.033c-38.338,0-63.018,28.204-63.018,70.51V216.934z"/>
	<path clip-path="url(#SVGID_2_)" fill="#EB008B" d="M-868.859,195.339c0-61.255,40.102-101.797,99.152-101.797
		c58.173,0,97.394,39.661,97.394,101.797v15.867c0,3.083-2.203,5.286-5.289,5.286h-150.273c-2.203,0-3.966,1.765-3.966,3.526
		c0.438,43.187,28.204,69.188,70.07,69.188c16.745,0,32.61-5.287,44.948-14.982c1.32-1.323,4.846-1.763,6.609,0.441l18.07,15.423
		c2.203,2.203,2.203,5.729,0,7.492c-18.509,14.984-43.188,22.915-69.628,22.915c-62.578,0-107.088-41.865-107.088-101.8V195.339z
		 M-831.403,186.967c0,2.204,1.765,3.966,3.968,3.966h113.698c2.203,0,3.968-1.762,3.968-3.966
		c-2.647-39.22-24.241-62.138-59.494-62.138C-805.842,124.829-828.758,147.747-831.403,186.967"/>
	<path clip-path="url(#SVGID_2_)" fill="#EB008B" d="M-622.972,97.948h23.793c2.643,0,4.406,1.321,4.846,3.524l2.203,22.036
		c0.438,1.762,2.646,2.204,3.968,0.882c17.187-19.39,41.423-29.527,68.746-29.527c48.476,0,75.358,29.966,75.358,85.494v130.884
		c0,2.644-2.202,4.848-4.85,4.848h-27.76c-2.646,0-4.85-2.204-4.85-4.848V181.678c0-38.337-18.948-54.205-48.916-54.205
		c-20.713,0-40.985,8.374-54.644,22.915c-3.53,3.086-5.29,7.054-5.29,11.899v148.954c0,2.644-2.203,4.848-4.849,4.848h-27.757
		c-3.086,0-5.289-2.204-5.289-4.848V102.796C-628.261,100.151-626.058,97.948-622.972,97.948"/>
	<path clip-path="url(#SVGID_2_)" fill="#EB008B" d="M270.418,215.31h50.078v80.124c0,16.595-13.452,30.047-30.048,30.047H30.047
		C13.452,325.48,0,312.028,0,295.434V215.31h50.078v60.094h220.34V215.31z M130.201-0.022v130.201H90.389
		c-2.75-0.286-5.212,1.711-5.499,4.462c-0.145,1.401,0.307,2.799,1.244,3.851l68.254,93.844c2.352,3.25,6.891,3.979,10.139,1.63
		c0.627-0.453,1.178-1.003,1.631-1.63l68.154-93.745c1.84-2.065,1.659-5.23-0.406-7.071c-1.052-0.937-2.448-1.388-3.851-1.242
		h-39.76V0.078L130.201-0.022z"/>
</g>
</svg>
